{
  "$schema": "http://json.schemastore.org/template",
  "author": "KubeRoot",
  "tags": {
    "language": "C#",
    "type": "solution"
  },
  "identity": "KubeRoot.BepInEx.RiskOfRain2",
  "name": "Template for BepInEx Risk of Rain 2 mods",
  "shortName": "bepinex.ror2",
  "sources": [
    {
      "source": "./templateFiles"
    },
    {
      "source": "./extraTemplateFiles"
    }
  ],
  "guids": [
    "{9A19103F-16F7-4668-BE54-9A1E7A4F7556}",
    "{70CF3F79-167D-40C3-A489-16E1E1D902C1}",
    "{3EF1BEF8-C0CD-4395-8F23-8863930147AB}"
  ],
  "symbols": {
    "modname": {
      "type": "parameter",
      "dataType": "string",
      "isRequired": true,
      "description": "Name of the mod to substitute in filenames, project name, metadata, namespace and mod ID",
      "replaces": "!!MODNAME!!",
      "fileRename": "!!MODNAME!!"
    },
    "modnamelower": {
      "type": "generated",
      "generator": "casing",
      "parameters": {
        "source": "modname",
        "toLower": true
      },
      "replaces": "!!MODNAMELOWER!!"
    }
  },
  "postactions": [
    {
      "actionId": "3A7C4B45-1F5D-4A30-959A-51B88E82B5D2",
      "args": {
        "executable": "git",
        "args": "init"
      },
      "manualInstructions": [{
        "text": "Run `git init`"
      }],
      "continueOnError": false,
      "description": "Creates a git repository"
    },
    {
      "actionId": "3A7C4B45-1F5D-4A30-959A-51B88E82B5D2",
      "args": {
        "executable": "git",
        "args": "submodule add https://gitlab.com/KubeRoot/ror2-libs.git libs"
      },
      "manualInstructions": [{
        "text": "Run `git submodule add https://gitlab.com/KubeRoot/ror2-libs.git libs`"
      }],
      "continueOnError": false,
      "description": "Adds the libs submodule"
    },
    {
      "actionId": "3A7C4B45-1F5D-4A30-959A-51B88E82B5D2",
      "args": {
        "executable": "git",
        "args": "add ."
      },
      "manualInstructions": [{
        "text": "Run `git add .`"
      }],
      "continueOnError": false,
      "description": "Stage all files"
    },
    {
      "actionId": "3A7C4B45-1F5D-4A30-959A-51B88E82B5D2",
      "args": {
        "executable": "git",
        "args": "commit -m \"Initial commit\""
      },
      "manualInstructions": [{
        "text": "Run `git commit -m \"Initial commit\"`"
      }],
      "continueOnError": false,
      "description": "Create initial commit"
    }
  ]
}
